{
  "atomic_energies": {
    "Ag": -2.866909636561393,
    "Al": -3.7378785744111127,
    "Ar": -0.026987425232164405,
    "Au": -3.179785855078641,
    "Ba": -1.8729578852630138,
    "Be": -3.702211141416992,
    "Bi": -4.680619368947326,
    "Ca": -2.040779722781822,
    "Cd": -0.9407603282913437,
    "Co": -8.288972737817213,
    "Cr": -9.408876112997403,
    "Cs": -0.8291317767006811,
    "Cu": -3.705834376711336,
    "Fe": -9.050489214590597,
    "Ga": -2.9078707227673113,
    "He": -0.004113359440244398,
    "Hf": -7.516720662374417,
    "Hg": -0.9185456152331127,
    "I": -1.4889245053829199,
    "In": -2.7807112878939595,
    "Ir": -9.399584128290174,
    "K": -1.2218001967651135,
    "Kr": -0.01981057947450204,
    "Mg": -1.6136161083409009,
    "Mn": -9.647771826361687,
    "Mo": -11.264729389628002,
    "Na": -1.323941606511649,
    "Nb": -10.355564036149005,
    "Ne": -0.0160024356731395,
    "Ni": -7.288265430121557,
    "Pb": -3.814839110809961,
    "Pd": -3.8804705483299435,
    "Pt": -6.440260156434865,
    "Rb": -0.9108644369613239,
    "Re": -11.66292703925163,
    "Rh": -7.317898256013955,
    "Sb": -4.409658178259666,
    "Sc": -4.669424828571816,
    "Sn": -4.065345952740932,
    "Sr": -1.6818837920873395,
    "Ta": -9.870888210064777,
    "Te": -3.207512080004181,
    "Ti": -6.710158287012528,
    "Tl": -2.5124158246697905,
    "V": -8.51133121004385,
    "W": -11.58132279760379,
    "Xe": -0.1106849128960713,
    "Y": -4.703543162770516,
    "Zn": -1.1906702305616237,
    "Zr": -7.412222389799168,
    "As": -4.665683625118854,
    "C": -9.230525327814828,
    "Li": -1.9019001934482263,
    "Ge": -4.520576020945318,
    "H": -3.387207614006755,
    "O": -5.116006203725517,
    "Os": -11.199677655605413,
    "P": -5.336994974192814,
    "Ru": -9.471745356645553,
    "Si": -5.399990126849768,
    "Cl": -1.8056547114769157,
    "S": -4.076575574330493,
    "Se": -3.4895456084273335,
    "B": -6.705742919018241,
    "N": -8.44690621672176,
    "Br": -1.6090387671214545,
    "F": -1.8024091001039029
  },
  "formation_energies": {
    "1Mo-676469": [
      {
        "Mo": 1
      },
      0.0
    ],
    "3S-1215902": [
      {
        "S": 3
      },
      0.07718677819284814
    ],
    "6S-5346": [
      {
        "S": 6
      },
      0.29099086802012053
    ],
    "28S-24931": [
      {
        "S": 28
      },
      1.4210854715202004e-14
    ],
    "28S-3447": [
      {
        "S": 28
      },
      0.64536095072026
    ],
    "9S-24290": [
      {
        "S": 9
      },
      0.2054299019284045
    ],
    "1MoS2-1443504": [
      {
        "Mo": 1,
        "S": 2
      },
      -2.71524901083232
    ],
    "1MoS2-1739023": [
      {
        "Mo": 1,
        "S": 2
      },
      -2.715238492934173
    ],
    "1MoS2-48063": [
      {
        "Mo": 1,
        "S": 2
      },
      -2.719496711819037
    ],
    "2MoS2-1444459": [
      {
        "Mo": 2,
        "S": 4
      },
      -5.430459550859901
    ],
    "2MoS2-4501": [
      {
        "Mo": 2,
        "S": 4
      },
      -5.439545288862455
    ],
    "4MoS2-1757535": [
      {
        "Mo": 4,
        "S": 8
      },
      -10.822479133319632
    ],
    "4MoS2-1757550": [
      {
        "Mo": 4,
        "S": 8
      },
      -10.841936537525868
    ],
    "4MoS2-1757888": [
      {
        "Mo": 4,
        "S": 8
      },
      -10.81747351200245
    ],
    "2Mo2S3-3377": [
      {
        "Mo": 4,
        "S": 6
      },
      -7.294440462417882
    ],
    "2Mo3S4-7689": [
      {
        "Mo": 6,
        "S": 8
      },
      -10.110946009600639
    ]
  }
}